Jaccard Index for PTMs
…
# Remove any extra unwanted columns
# Explicitly select only the columns you need
ptm_data_parsed <- ptm_data_parsed %>%
  dplyr::select(Gene, Modification, bHLH, parsed_info_Residue, parsed_info_Position, parsed_info_Modification)

# Print the final result
print("Final data:")

## [1] "Final data:"

print(ptm_data_parsed)

## # A tibble: 106 × 6
##    Gene  Modification bHLH  parsed_info_Residue parsed_info_Position
##    <chr> <chr>        <chr> <chr>                              <dbl>
##  1 Atoh1 Y49-p        No    Y                                     49
##  2 Atoh1 Y80-p        No    Y                                     80
##  3 Atoh1 S84-p        No    S                                     84
##  4 Atoh1 S109-p       No    S                                    109
##  5 Atoh1 S110-p       No    S                                    110
##  6 Atoh1 S150-p       No    S                                    150
##  7 Atoh1 S196-p       Yes   S                                    196
##  8 Atoh1 S312-p       No    S                                    312
##  9 Atoh1 S314-p       No    S                                    314
## 10 Atoh1 S328-p       No    S                                    328
## # ℹ 96 more rows
## # ℹ 1 more variable: parsed_info_Modification <chr>
…
# Merge lengths data with the parsed modifications data
ptm_data_parsed <- ptm_data_parsed %>%
  left_join(lengths_data, by = "Gene")

# Normalize the modification positions
ptm_data_parsed <- ptm_data_parsed %>%
  mutate(Normalized_Position = (parsed_info_Position / Length) * 100)

# Display the resulting data frame with normalized positions
print(ptm_data_parsed)

## # A tibble: 106 × 8
##    Gene  Modification bHLH  parsed_info_Residue parsed_info_Position
##    <chr> <chr>        <chr> <chr>                              <dbl>
##  1 Atoh1 Y49-p        No    Y                                     49
##  2 Atoh1 Y80-p        No    Y                                     80
##  3 Atoh1 S84-p        No    S                                     84
##  4 Atoh1 S109-p       No    S                                    109
##  5 Atoh1 S110-p       No    S                                    110
##  6 Atoh1 S150-p       No    S                                    150
##  7 Atoh1 S196-p       Yes   S                                    196
##  8 Atoh1 S312-p       No    S                                    312
##  9 Atoh1 S314-p       No    S                                    314
## 10 Atoh1 S328-p       No    S                                    328
## # ℹ 96 more rows
## # ℹ 3 more variables: parsed_info_Modification <chr>, Length <int>,
## #   Normalized_Position <dbl>
…
# Filter modifications for Serine (S) and Threonine (T) with bHLH == "Yes"
ptm_data_bHLH_ST <- ptm_data_parsed %>%
  filter(parsed_info_Residue %in% c("S", "T"), bHLH == "Yes")

# Display the results to confirm
print("Non-bHLH domain modifications for S and T:")

## [1] "Non-bHLH domain modifications for S and T:"

print(ptm_data_non_bHLH_ST)

## # A tibble: 61 × 8
##    Gene  Modification bHLH  parsed_info_Residue parsed_info_Position
##    <chr> <chr>        <chr> <chr>                              <dbl>
##  1 Atoh1 S84-p        No    S                                     84
##  2 Atoh1 S109-p       No    S                                    109
##  3 Atoh1 S110-p       No    S                                    110
##  4 Atoh1 S150-p       No    S                                    150
##  5 Atoh1 S312-p       No    S                                    312
##  6 Atoh1 S314-p       No    S                                    314
##  7 Atoh1 S328-p       No    S                                    328
##  8 Atoh1 S331-p       No    S                                    331
##  9 Atoh1 S334-p       No    S                                    334
## 10 Atoh1 S337-p       No    S                                    337
## # ℹ 51 more rows
## # ℹ 3 more variables: parsed_info_Modification <chr>, Length <int>,
## #   Normalized_Position <dbl>
…
